{
    "__CREATED-ON__": "2018-07-22 12:12:26.317011",
    "__DEF-TEXT__": "This file contains information about a PyBpod protocol.",
    "__DEF-URL__": "http://pybpod.readthedocs.org",
    "__SOFTWARE__": "PyBpod GUI API v1.0",
    "__UPDATED-ON__": "2018-07-22 12:12:26.317011",
    "__UUID4__": "f63b8a4w-27fc-4f77-5633-01d160dd2924",
    "commands": [],
    "name": "p4_freq_sound_before",
    "trigger-softcodes": false
}