{
    "__CREATED-ON__": "2020-01-07 21:41:04.829044",
    "__DEF-TEXT__": "This file contains information about a PyBpod protocol.",
    "__DEF-URL__": "http://pybpod.readthedocs.org",
    "__SOFTWARE__": "PyBpod GUI API v1.2.2",
    "__UPDATED-ON__": "2020-01-07 21:41:04.829044",
    "__UUID4__": "b61ed0e2-3b18-43fe-9e74-2c526ed44850",
    "commands": [],
    "name": "p4_repalt_silence_new_easy",
    "trigger-softcodes": false
}